ELLVsDropoutRateGraph
…
Loading the dataset

setwd("~/Desktop/Nebraska education ")
Set_5 <- read_excel("~/Desktop/Nebraska education /Set 5.xlsx")

## Warning in strptime(x, format, tz = tz): unknown timezone 'default/America/
## Chicago'

ELL <- read_excel("Set 5.xlsx")
ELL[ELL == '-1'] <- NA
ELLcln <- na.omit(ELL)
ELLcln[c("ELL Percentage","Dropout Rate")]

## # A tibble: 81 x 2
##    `ELL Percentage` `Dropout Rate`
##               <dbl>          <dbl>
##  1           0.0647         0.0146
##  2           0.0604         0.0111
##  3           0.0620         0.0109
##  4           0.0609         0.0120
##  5           0.0956         0.0142
##  6           0.0804         0.0150
##  7           0.0704         0.0076
##  8           0.0732         0.0116
##  9           0.0401         0.0137
## 10           0.0295         0.0249
## # ... with 71 more rows
…
